<svg id="svg" xmlns="http://www.w3.org/2000/svg"
     xmlns:xlink="http://www.w3.org/1999/xlink"
     width="1em" height="1em"
     viewBox="0, 0, 400,400" version="1.1">
    <g id="svg">
        <path id="path1"
              d="M185.000 0.247 C 176.293 0.896,168.578 1.730,168.467
               2.034 C 168.393 2.235,167.943 2.398,167.467 2.396 C 166.099 2.390,157.822 3.736,157.600 4.001 C 157.490 4.132,155.600 4.571,153.400 4.976 C 151.200 5.381,149.310 5.832,149.200 5.978 C 149.090 6.124,147.470 6.566,145.600 6.960 C 143.730 7.354,142.020 7.823,141.800 8.003 C 141.580 8.182,140.230 8.631,138.800 9.000 C 137.370 9.369,136.020 9.819,135.800 9.999 C 135.580 10.179,134.322 10.607,133.004 10.950 C 131.687 11.293,130.547 11.760,130.471 11.987 C 130.395 12.214,130.099 12.400,129.813 12.400 C 129.080 12.400,125.042 13.706,124.800 14.021 C 124.690 14.165,123.655 14.593,122.500 14.973 C 121.345 15.353,120.398 15.785,120.397 15.932 C 120.395 16.079,119.315 16.536,117.997 16.947 C 116.678 17.358,115.600 17.841,115.600 18.020 C 115.600 18.199,115.195 18.454,114.700 18.587 C 113.460 18.918,103.931 23.683,103.275 24.300 C 102.982 24.575,102.520 24.800,102.247 24.800 C 101.974 24.800,101.402 25.117,100.975 25.505 C 100.549 25.893,99.435 26.550,98.500 26.966 C 97.565 27.382,96.800 27.874,96.800 28.061 C 96.800 28.247,96.601 28.400,96.358 28.400 C 96.115 28.400,95.116 28.940,94.138 29.600 C 93.160 30.260,92.223 30.800,92.055 30.800 C 91.888 30.800,91.402 31.124,90.975 31.520 C 90.549 31.916,89.570 32.591,88.800 33.020 C 88.030 33.449,87.256 34.025,87.080 34.300 C 86.904 34.575,86.544 34.800,86.280 34.801 C 86.016 34.801,85.170 35.341,84.400 36.000 C 83.630 36.659,82.893 37.199,82.762 37.199 C 82.631 37.200,82.001 37.650,81.362 38.200 C 80.723 38.749,80.091 39.199,79.958 39.200 C 79.826 39.200,79.249 39.605,78.677 40.100 C 78.105 40.595,77.133 41.394,76.518 41.876 C 75.903 42.358,74.086 43.844,72.480 45.179 C 70.874 46.514,69.281 47.830,68.941 48.103 C 68.601 48.376,67.432 49.455,66.342 50.500 C 65.253 51.545,64.235 52.405,64.081 52.410 C 63.733 52.423,52.400 63.783,52.400 64.119 C 52.400 64.252,51.545 65.253,50.500 66.342 C 49.455 67.432,48.330 68.649,48.000 69.048 C 47.670 69.448,46.352 71.040,45.071 72.587 C 43.790 74.134,42.350 75.903,41.871 76.518 C 41.392 77.133,40.595 78.105,40.100 78.677 C 39.605 79.249,39.200 79.826,39.199 79.958 C 39.199 80.091,38.659 80.830,38.000 81.600 C 37.341 82.370,36.801 83.107,36.801 83.238 C 36.800 83.369,36.350 83.999,35.800 84.638 C 35.251 85.277,34.801 86.016,34.800 86.280 C 34.800 86.544,34.575 86.904,34.300 87.080 C 34.025 87.256,33.449 88.030,33.020 88.800 C 32.591 89.570,31.916 90.549,31.520 90.975 C 31.124 91.402,30.800 91.888,30.800 92.055 C 30.800 92.223,30.260 93.160,29.600 94.138 C 28.940 95.116,28.400 96.096,28.400 96.315 C 28.400 96.535,28.165 96.805,27.878 96.915 C 27.591 97.025,27.112 97.854,26.814 98.757 C 26.516 99.661,26.112 100.400,25.916 100.400 C 25.720 100.400,25.278 101.075,24.935 101.900 C 24.591 102.725,24.186 103.490,24.034 103.600 C 23.882 103.710,23.426 104.520,23.020 105.400 C 22.614 106.280,22.157 107.090,22.004 107.200 C 21.852 107.310,21.404 108.255,21.009 109.300 C 20.614 110.345,20.136 111.200,19.946 111.200 C 19.756 111.200,19.600 111.388,19.600 111.617 C 19.600 111.846,19.044 113.241,18.364 114.717 C 15.661 120.581,15.279 121.459,14.751 123.000 C 14.451 123.880,14.086 124.690,13.942 124.800 C 13.798 124.910,13.380 126.032,13.014 127.293 C 12.647 128.554,12.197 129.678,12.014 129.791 C 11.830 129.905,11.462 130.943,11.195 132.099 C 10.928 133.254,10.459 134.600,10.153 135.089 C 9.847 135.577,9.397 136.927,9.152 138.089 C 8.908 139.250,8.392 140.920,8.005 141.800 C 7.618 142.680,7.065 144.615,6.777 146.100 C 6.489 147.585,6.136 148.800,5.994 148.800 C 5.851 148.800,5.400 150.645,4.992 152.900 C 4.584 155.155,4.131 157.090,3.986 157.200 C 3.840 157.310,3.412 159.560,3.034 162.200 C 2.656 164.840,2.184 167.360,1.985 167.800 C -0.432 173.142,-0.435 226.786,1.981 232.200 C 2.178 232.640,2.632 235.156,2.992 237.790 C 3.351 240.425,3.779 242.675,3.942 242.790 C 4.106 242.906,4.571 244.800,4.976 247.000 C 5.381 249.200,5.834 251.090,5.983 251.200 C 6.132 251.310,6.579 252.975,6.978 254.900 C 7.376 256.825,7.817 258.400,7.957 258.400 C 8.098 258.400,8.556 259.840,8.975 261.600 C 9.395 263.360,9.849 264.800,9.985 264.800 C 10.122 264.800,10.578 266.060,11.000 267.600 C 11.422 269.140,11.886 270.400,12.031 270.400 C 12.176 270.400,12.598 271.480,12.968 272.800 C 13.338 274.120,13.773 275.200,13.933 275.200 C 14.094 275.200,14.469 276.055,14.767 277.100 C 15.065 278.145,15.614 279.540,15.987 280.200 C 16.361 280.860,16.905 282.165,17.197 283.100 C 17.489 284.035,17.861 284.800,18.024 284.800 C 18.187 284.800,18.643 285.700,19.039 286.800 C 19.434 287.900,19.878 288.800,20.025 288.800 C 20.171 288.800,20.614 289.655,21.009 290.700 C 21.404 291.745,21.853 292.690,22.007 292.800 C 22.160 292.910,22.669 293.810,23.137 294.800 C 23.605 295.790,24.618 297.680,25.389 299.000 C 26.159 300.320,26.989 301.895,27.234 302.500 C 27.478 303.105,27.813 303.600,27.978 303.600 C 28.143 303.600,28.603 304.320,29.000 305.200 C 29.397 306.080,29.852 306.800,30.012 306.800 C 30.172 306.800,30.528 307.344,30.804 308.009 C 31.079 308.675,31.516 309.350,31.774 309.509 C 32.032 309.669,32.557 310.475,32.940 311.300 C 33.324 312.125,33.776 312.800,33.945 312.800 C 34.114 312.800,34.552 313.430,34.919 314.200 C 35.287 314.970,35.770 315.600,35.994 315.600 C 36.217 315.600,36.400 315.806,36.400 316.059 C 36.400 316.311,37.030 317.286,37.800 318.226 C 38.570 319.166,39.200 320.123,39.200 320.353 C 39.200 320.583,39.560 320.965,40.000 321.200 C 40.440 321.435,40.800 321.882,40.800 322.191 C 40.800 322.501,41.132 322.990,41.537 323.277 C 41.942 323.565,42.347 324.000,42.437 324.244 C 42.663 324.860,44.811 327.577,45.900 328.626 C 46.395 329.102,46.800 329.637,46.800 329.814 C 46.800 329.992,47.610 330.913,48.600 331.862 C 49.590 332.810,50.400 333.708,50.400 333.857 C 50.400 334.209,65.791 349.600,66.143 349.600 C 66.292 349.600,67.190 350.410,68.138 351.400 C 69.087 352.390,70.008 353.200,70.186 353.200 C 70.363 353.200,70.898 353.605,71.374 354.100 C 72.423 355.189,75.140 357.337,75.756 357.563 C 76.000 357.653,76.435 358.058,76.723 358.463 C 77.010 358.868,77.499 359.200,77.809 359.200 C 78.118 359.200,78.565 359.560,78.800 360.000 C 79.035 360.440,79.482 360.800,79.791 360.800 C 80.101 360.800,80.593 361.115,80.883 361.500 C 81.480 362.289,82.657 363.108,83.700 363.458 C 84.085 363.588,84.400 363.855,84.400 364.053 C 84.400 364.251,85.030 364.713,85.800 365.081 C 86.570 365.448,87.200 365.886,87.200 366.055 C 87.200 366.224,87.875 366.676,88.700 367.060 C 89.525 367.443,90.331 367.968,90.491 368.226 C 90.650 368.484,91.325 368.921,91.991 369.196 C 92.656 369.472,93.200 369.828,93.200 369.988 C 93.200 370.148,93.920 370.603,94.800 371.000 C 95.680 371.397,96.400 371.862,96.400 372.034 C 96.400 372.206,96.756 372.459,97.192 372.598 C 97.997 372.853,102.259 375.286,103.012 375.920 C 103.238 376.110,104.273 376.591,105.312 376.987 C 106.350 377.384,107.202 377.819,107.205 377.954 C 107.207 378.089,107.972 378.557,108.905 378.994 C 109.837 379.431,110.690 379.888,110.800 380.011 C 110.910 380.133,111.789 380.488,112.753 380.798 C 113.717 381.109,114.707 381.564,114.953 381.810 C 115.199 382.056,116.300 382.595,117.400 383.008 C 118.500 383.421,119.490 383.885,119.600 384.039 C 119.710 384.193,120.790 384.639,122.000 385.029 C 123.210 385.419,124.290 385.868,124.400 386.026 C 124.510 386.184,125.568 386.600,126.751 386.950 C 127.935 387.301,129.105 387.751,129.351 387.951 C 129.598 388.151,130.970 388.635,132.400 389.028 C 133.830 389.421,135.090 389.860,135.200 390.004 C 135.310 390.149,136.705 390.601,138.300 391.010 C 139.895 391.420,141.200 391.875,141.200 392.023 C 141.200 392.170,142.820 392.620,144.800 393.022 C 146.780 393.424,148.400 393.872,148.400 394.017 C 148.400 394.163,150.290 394.618,152.600 395.028 C 154.910 395.439,156.800 395.889,156.800 396.029 C 156.800 396.169,159.095 396.612,161.900 397.013 C 164.705 397.414,167.090 397.868,167.200 398.022 C 168.881 400.373,231.130 400.371,232.800 398.020 C 232.910 397.865,235.247 397.425,237.994 397.041 C 240.741 396.657,243.081 396.210,243.194 396.046 C 243.307 395.883,245.245 395.416,247.500 395.008 C 249.755 394.600,251.600 394.151,251.600 394.009 C 251.600 393.868,253.220 393.424,255.200 393.022 C 257.180 392.620,258.800 392.170,258.800 392.023 C 258.800 391.875,260.105 391.420,261.700 391.010 C 263.295 390.601,264.690 390.149,264.800 390.004 C 264.910 389.860,266.170 389.421,267.600 389.028 C 269.030 388.635,270.402 388.151,270.649 387.951 C 270.895 387.751,272.065 387.301,273.249 386.950 C 274.432 386.600,275.490 386.184,275.600 386.026 C 275.710 385.868,276.790 385.419,278.000 385.029 C 279.210 384.639,280.290 384.193,280.400 384.039 C 280.510 383.885,281.500 383.421,282.600 383.008 C 283.700 382.595,284.801 382.056,285.047 381.810 C 285.293 381.564,286.283 381.109,287.247 380.798 C 288.211 380.488,289.090 380.133,289.200 380.011 C 289.310 379.888,290.163 379.431,291.095 378.994 C 292.028 378.557,292.793 378.089,292.795 377.954 C 292.798 377.819,293.650 377.384,294.688 376.987 C 295.727 376.591,296.762 376.110,296.988 375.920 C 297.741 375.286,302.003 372.853,302.808 372.598 C 303.244 372.459,303.600 372.206,303.600 372.034 C 303.600 371.862,304.320 371.397,305.200 371.000 C 306.080 370.603,306.800 370.159,306.800 370.013 C 306.800 369.867,307.430 369.448,308.200 369.081 C 308.970 368.713,309.600 368.250,309.600 368.050 C 309.600 367.850,310.055 367.573,310.610 367.433 C 311.166 367.294,311.966 366.834,312.389 366.411 C 312.812 365.988,313.707 365.358,314.379 365.011 C 315.050 364.664,315.600 364.225,315.600 364.036 C 315.600 363.848,315.915 363.588,316.300 363.458 C 317.343 363.108,318.520 362.289,319.117 361.500 C 319.407 361.115,319.899 360.800,320.209 360.800 C 320.518 360.800,320.965 360.440,321.200 360.000 C 321.435 359.560,321.882 359.200,322.191 359.200 C 322.501 359.200,322.990 358.868,323.277 358.463 C 323.565 358.058,324.000 357.653,324.244 357.563 C 324.860 357.337,327.577 355.189,328.626 354.100 C 329.102 353.605,329.637 353.200,329.814 353.200 C 329.992 353.200,330.913 352.390,331.862 351.400 C 332.810 350.410,333.708 349.600,333.857 349.600 C 334.209 349.600,349.600 334.209,349.600 333.857 C 349.600 333.708,350.410 332.810,351.400 331.862 C 352.390 330.913,353.200 329.992,353.200 329.814 C 353.200 329.637,353.605 329.102,354.100 328.626 C 355.189 327.577,357.337 324.860,357.563 324.244 C 357.653 324.000,358.058 323.565,358.463 323.277 C 358.868 322.990,359.200 322.501,359.200 322.191 C 359.200 321.882,359.560 321.435,360.000 321.200 C 360.440 320.965,360.800 320.583,360.800 320.353 C 360.800 320.123,361.430 319.166,362.200 318.226 C 362.970 317.286,363.600 316.311,363.600 316.059 C 363.600 315.806,363.783 315.600,364.006 315.600 C 364.230 315.600,364.713 314.970,365.081 314.200 C 365.448 313.430,365.886 312.800,366.055 312.800 C 366.224 312.800,366.676 312.125,367.060 311.300 C 367.443 310.475,367.968 309.669,368.226 309.509 C 368.484 309.350,368.921 308.675,369.196 308.009 C 369.472 307.344,369.828 306.800,369.988 306.800 C 370.148 306.800,370.603 306.080,371.000 305.200 C 371.397 304.320,371.862 303.600,372.034 303.600 C 372.206 303.600,372.472 303.195,372.626 302.700 C 372.779 302.205,373.218 301.350,373.600 300.800 C 373.982 300.250,375.038 298.360,375.947 296.600 C 376.856 294.840,377.750 293.215,377.933 292.988 C 378.116 292.762,378.591 291.727,378.987 290.688 C 379.384 289.650,379.829 288.800,379.975 288.800 C 380.122 288.800,380.566 287.900,380.961 286.800 C 381.357 285.700,381.818 284.800,381.985 284.800 C 382.153 284.800,382.602 283.810,382.982 282.601 C 383.363 281.391,383.821 280.311,384.000 280.200 C 384.179 280.089,384.637 279.009,385.018 277.799 C 385.398 276.590,385.838 275.600,385.995 275.600 C 386.153 275.600,386.598 274.430,386.985 273.000 C 387.372 271.570,387.827 270.400,387.995 270.400 C 388.164 270.400,388.629 269.140,389.028 267.600 C 389.427 266.060,389.869 264.800,390.008 264.800 C 390.148 264.800,390.605 263.360,391.025 261.600 C 391.444 259.840,391.902 258.400,392.043 258.400 C 392.183 258.400,392.624 256.825,393.022 254.900 C 393.421 252.975,393.866 251.310,394.011 251.200 C 394.157 251.090,394.602 249.290,395.000 247.200 C 395.398 245.110,395.856 243.310,396.017 243.200 C 396.178 243.090,396.610 240.750,396.977 238.000 C 397.344 235.250,397.803 232.707,397.996 232.348 C 400.427 227.832,400.442 173.174,398.014 167.800 C 397.815 167.360,397.344 164.840,396.966 162.200 C 396.588 159.560,396.160 157.310,396.014 157.200 C 395.869 157.090,395.416 155.155,395.008 152.900 C 394.600 150.645,394.149 148.800,394.006 148.800 C 393.864 148.800,393.511 147.585,393.223 146.100 C 392.935 144.615,392.382 142.680,391.995 141.800 C 391.608 140.920,391.092 139.250,390.848 138.089 C 390.603 136.927,390.153 135.577,389.847 135.089 C 389.541 134.600,389.072 133.254,388.805 132.099 C 388.538 130.943,388.170 129.905,387.986 129.791 C 387.803 129.678,387.353 128.554,386.986 127.293 C 386.620 126.032,386.202 124.910,386.058 124.800 C 385.914 124.690,385.549 123.880,385.247 123.000 C 384.738 121.516,383.797 119.366,381.364 114.125 C 380.834 112.983,380.400 111.858,380.400 111.625 C 380.400 111.391,380.244 111.200,380.054 111.200 C 379.864 111.200,379.386 110.345,378.991 109.300 C 378.596 108.255,378.148 107.310,377.996 107.200 C 377.843 107.090,377.386 106.280,376.980 105.400 C 376.574 104.520,376.118 103.710,375.966 103.600 C 375.814 103.490,375.409 102.725,375.065 101.900 C 374.722 101.075,374.280 100.400,374.084 100.400 C 373.888 100.400,373.484 99.661,373.186 98.757 C 372.888 97.854,372.409 97.025,372.122 96.915 C 371.835 96.805,371.600 96.491,371.600 96.217 C 371.600 95.944,371.060 94.975,370.400 94.063 C 369.740 93.152,369.200 92.259,369.200 92.079 C 369.200 91.898,368.876 91.402,368.480 90.975 C 368.084 90.549,367.409 89.570,366.980 88.800 C 366.551 88.030,365.975 87.256,365.700 87.080 C 365.425 86.904,365.200 86.544,365.200 86.280 C 365.199 86.016,364.749 85.277,364.200 84.638 C 363.650 83.999,363.200 83.369,363.199 83.238 C 363.199 83.107,362.659 82.370,362.000 81.600 C 361.341 80.830,360.801 80.091,360.801 79.958 C 360.800 79.826,360.395 79.249,359.900 78.677 C 359.405 78.105,358.608 77.133,358.129 76.518 C 357.650 75.903,356.210 74.134,354.929 72.587 C 353.648 71.040,352.330 69.448,352.000 69.048 C 351.670 68.649,350.545 67.432,349.500 66.342 C 348.455 65.253,347.595 64.235,347.590 64.081 C 347.577 63.733,336.217 52.400,335.881 52.400 C 335.748 52.400,334.747 51.545,333.658 50.500 C 332.568 49.455,331.399 48.376,331.059 48.103 C 330.719 47.830,329.126 46.514,327.520 45.179 C 325.914 43.844,324.097 42.358,323.482 41.876 C 322.867 41.394,321.895 40.595,321.323 40.100 C 320.751 39.605,320.174 39.200,320.042 39.200 C 319.909 39.199,319.277 38.749,318.638 38.200 C 317.999 37.650,317.369 37.200,317.238 37.199 C 317.107 37.199,316.370 36.659,315.600 36.000 C 314.830 35.341,313.984 34.801,313.720 34.801 C 313.456 34.800,313.096 34.575,312.920 34.300 C 312.744 34.025,311.970 33.449,311.200 33.020 C 310.430 32.591,309.451 31.916,309.025 31.520 C 308.598 31.124,308.112 30.800,307.945 30.800 C 307.777 30.800,306.840 30.260,305.862 29.600 C 304.884 28.940,303.885 28.400,303.642 28.400 C 303.399 28.400,303.200 28.247,303.200 28.061 C 303.200 27.874,302.436 27.379,301.503 26.961 C 300.570 26.542,299.490 25.885,299.103 25.500 C 298.716 25.115,298.143 24.800,297.829 24.800 C 297.514 24.800,297.018 24.575,296.725 24.300 C 296.069 23.683,286.540 18.918,285.300 18.587 C 284.805 18.454,284.400 18.199,284.400 18.020 C 284.400 17.841,283.322 17.358,282.003 16.947 C 280.685 16.536,279.605 16.079,279.603 15.932 C 279.602 15.785,278.655 15.353,277.500 14.973 C 276.345 14.593,275.310 14.165,275.200 14.021 C 274.958 13.706,270.920 12.400,270.187 12.400 C 269.901 12.400,269.605 12.214,269.529 11.987 C 269.453 11.760,268.313 11.293,266.996 10.950 C 265.678 10.607,264.420 10.179,264.200 9.999 C 263.980 9.819,262.630 9.369,261.200 9.000 C 259.770 8.631,258.420 8.182,258.200 8.003 C 257.980 7.823,256.270 7.354,254.400 6.960 C 252.530 6.566,250.910 6.124,250.800 5.978 C 250.690 5.832,248.800 5.381,246.600 4.976 C 244.400 4.571,242.510 4.132,242.400 4.001 C 242.178 3.736,233.901 2.390,232.533 2.396 C 232.057 2.398,231.607 2.237,231.533 2.038 C 231.104 0.872,195.172 -0.512,185.000 0.247 M146.400 104.600 L 146.400 118.800 125.800 118.800 L 105.200 118.800 105.200 150.200 L 105.200 181.600 117.600 181.600 L 130.000 181.600 130.000 196.000 L 130.000 210.400 117.602 210.400 L 105.203 210.400 105.102 260.100 L 105.000 309.800 90.900 309.905 L 76.800 310.010 76.800 200.205 L 76.800 90.400 111.600 90.400 L 146.400 90.400 146.400 104.600 M224.704 91.139 C 229.263 92.558,233.004 96.076,234.871 100.699 C 235.795 102.986,235.801 103.119,235.917 123.300 L 236.034 143.600 221.823 143.600 L 207.612 143.600 207.506 131.300 L 207.400 119.000 196.700 118.893 L 186.000 118.787 186.000 150.172 L 186.000 181.557 204.900 181.681 L 223.800 181.806 226.435 183.057 C 231.202 185.320,234.675 189.812,235.622 194.938 C 235.870 196.277,235.975 215.554,235.908 247.031 L 235.800 297.000 234.835 299.585 C 233.536 303.061,229.330 307.357,225.800 308.811 L 223.400 309.799 198.045 309.917 C 181.246 309.994,172.000 309.890,170.645 309.609 C 165.638 308.568,160.964 304.952,158.881 300.507 L 157.800 298.200 157.800 200.400 L 157.800 102.600 159.044 100.000 C 161.209 95.475,164.680 92.304,168.914 90.980 C 171.931 90.038,221.619 90.179,224.704 91.139 M312.622 91.204 C 317.345 92.801,321.809 97.553,322.763 102.000 C 323.046 103.320,323.200 111.017,323.200 123.825 L 323.200 143.610 309.100 143.505 L 295.000 143.400 294.894 131.100 L 294.788 118.800 284.194 118.800 L 273.600 118.800 273.600 150.182 L 273.600 181.563 292.300 181.682 L 311.000 181.800 313.182 182.948 C 315.876 184.366,319.052 187.565,320.746 190.565 C 323.341 195.165,323.226 192.368,323.108 247.860 L 323.000 298.242 321.621 300.959 C 319.837 304.474,316.497 307.562,313.076 308.860 L 310.600 309.800 284.800 309.800 L 259.000 309.800 256.861 308.890 C 252.843 307.182,250.283 304.765,248.299 300.809 L 247.000 298.218 246.885 269.109 L 246.770 240.000 260.185 240.000 L 273.600 240.000 273.600 260.807 L 273.600 281.613 284.100 281.507 L 294.600 281.400 294.702 245.926 L 294.804 210.452 276.902 210.326 L 259.000 210.200 256.328 208.934 C 253.237 207.470,250.469 205.071,249.022 202.602 C 246.733 198.696,246.800 200.270,246.800 150.200 C 246.800 99.458,246.707 101.423,249.285 97.676 C 251.834 93.972,253.931 92.321,257.564 91.159 C 261.215 89.990,309.150 90.030,312.622 91.204 M186.098 245.900 L 186.200 281.400 196.351 281.507 C 203.504 281.582,206.663 281.479,207.051 281.158 C 207.509 280.778,207.600 274.869,207.600 245.551 L 207.600 210.400 196.798 210.400 L 185.996 210.400 186.098 245.900"
              stroke="none" fill="#000000"/>
    </g>
</svg>
